  0
SECTION
  2
BLOCKS
  0
ENDSEC
  0
SECTION
  2
ENTITIES
  0
LINE
  8
0
 10
-190
 20
-15
 11
-189.99
 21
-15.314
  0
LINE
  8
0
 10
-189.99
 20
-15.314
 11
-189.961
 21
-15.6267
  0
LINE
  8
0
 10
-189.961
 20
-15.6267
 11
-189.911
 21
-15.9369
  0
LINE
  8
0
 10
-189.911
 20
-15.9369
 11
-189.843
 21
-16.2435
  0
LINE
  8
0
 10
-189.843
 20
-16.2435
 11
-189.755
 21
-16.5451
  0
LINE
  8
0
 10
-189.755
 20
-16.5451
 11
-189.649
 21
-16.8406
  0
LINE
  8
0
 10
-189.649
 20
-16.8406
 11
-189.524
 21
-17.1289
  0
LINE
  8
0
 10
-189.524
 20
-17.1289
 11
-189.382
 21
-17.4088
  0
LINE
  8
0
 10
-189.382
 20
-17.4088
 11
-189.222
 21
-17.6791
  0
LINE
  8
0
 10
-189.222
 20
-17.6791
 11
-189.045
 21
-17.9389
  0
LINE
  8
0
 10
-189.045
 20
-17.9389
 11
-188.853
 21
-18.1871
  0
LINE
  8
0
 10
-188.853
 20
-18.1871
 11
-188.645
 21
-18.4227
  0
LINE
  8
0
 10
-188.645
 20
-18.4227
 11
-188.423
 21
-18.6448
  0
LINE
  8
0
 10
-188.423
 20
-18.6448
 11
-188.187
 21
-18.8526
  0
LINE
  8
0
 10
-188.187
 20
-18.8526
 11
-187.939
 21
-19.0451
  0
LINE
  8
0
 10
-187.939
 20
-19.0451
 11
-187.679
 21
-19.2216
  0
LINE
  8
0
 10
-187.679
 20
-19.2216
 11
-187.409
 21
-19.3815
  0
LINE
  8
0
 10
-187.409
 20
-19.3815
 11
-187.129
 21
-19.5241
  0
LINE
  8
0
 10
-187.129
 20
-19.5241
 11
-186.841
 21
-19.6489
  0
LINE
  8
0
 10
-186.841
 20
-19.6489
 11
-186.545
 21
-19.7553
  0
LINE
  8
0
 10
-186.545
 20
-19.7553
 11
-186.243
 21
-19.8429
  0
LINE
  8
0
 10
-186.243
 20
-19.8429
 11
-185.937
 21
-19.9114
  0
LINE
  8
0
 10
-185.937
 20
-19.9114
 11
-185.627
 21
-19.9606
  0
LINE
  8
0
 10
-185.627
 20
-19.9606
 11
-185.314
 21
-19.9901
  0
LINE
  8
0
 10
-185.314
 20
-19.9901
 11
-185
 21
-20
  0
LINE
  8
0
 10
-185
 20
-20
 11
185
 21
-20
  0
LINE
  8
0
 10
185
 20
-20
 11
185.314
 21
-19.9901
  0
LINE
  8
0
 10
185.314
 20
-19.9901
 11
185.627
 21
-19.9606
  0
LINE
  8
0
 10
185.627
 20
-19.9606
 11
185.937
 21
-19.9114
  0
LINE
  8
0
 10
185.937
 20
-19.9114
 11
186.243
 21
-19.8429
  0
LINE
  8
0
 10
186.243
 20
-19.8429
 11
186.545
 21
-19.7553
  0
LINE
  8
0
 10
186.545
 20
-19.7553
 11
186.841
 21
-19.6489
  0
LINE
  8
0
 10
186.841
 20
-19.6489
 11
187.129
 21
-19.5241
  0
LINE
  8
0
 10
187.129
 20
-19.5241
 11
187.409
 21
-19.3815
  0
LINE
  8
0
 10
187.409
 20
-19.3815
 11
187.679
 21
-19.2216
  0
LINE
  8
0
 10
187.679
 20
-19.2216
 11
187.939
 21
-19.0451
  0
LINE
  8
0
 10
187.939
 20
-19.0451
 11
188.187
 21
-18.8526
  0
LINE
  8
0
 10
188.187
 20
-18.8526
 11
188.423
 21
-18.6448
  0
LINE
  8
0
 10
188.423
 20
-18.6448
 11
188.645
 21
-18.4227
  0
LINE
  8
0
 10
188.645
 20
-18.4227
 11
188.853
 21
-18.1871
  0
LINE
  8
0
 10
188.853
 20
-18.1871
 11
189.045
 21
-17.9389
  0
LINE
  8
0
 10
189.045
 20
-17.9389
 11
189.222
 21
-17.6791
  0
LINE
  8
0
 10
189.222
 20
-17.6791
 11
189.382
 21
-17.4088
  0
LINE
  8
0
 10
189.382
 20
-17.4088
 11
189.524
 21
-17.1289
  0
LINE
  8
0
 10
189.524
 20
-17.1289
 11
189.649
 21
-16.8406
  0
LINE
  8
0
 10
189.649
 20
-16.8406
 11
189.755
 21
-16.5451
  0
LINE
  8
0
 10
189.755
 20
-16.5451
 11
189.843
 21
-16.2435
  0
LINE
  8
0
 10
189.843
 20
-16.2435
 11
189.911
 21
-15.9369
  0
LINE
  8
0
 10
189.911
 20
-15.9369
 11
189.961
 21
-15.6267
  0
LINE
  8
0
 10
189.961
 20
-15.6267
 11
189.99
 21
-15.314
  0
LINE
  8
0
 10
189.99
 20
-15.314
 11
190
 21
-15
  0
LINE
  8
0
 10
190
 20
-15
 11
189.99
 21
-14.686
  0
LINE
  8
0
 10
189.99
 20
-14.686
 11
189.961
 21
-14.3733
  0
LINE
  8
0
 10
189.961
 20
-14.3733
 11
189.911
 21
-14.0631
  0
LINE
  8
0
 10
189.911
 20
-14.0631
 11
189.843
 21
-13.7566
  0
LINE
  8
0
 10
189.843
 20
-13.7566
 11
189.755
 21
-13.4549
  0
LINE
  8
0
 10
189.755
 20
-13.4549
 11
189.649
 21
-13.1594
  0
LINE
  8
0
 10
189.649
 20
-13.1594
 11
189.524
 21
-12.8711
  0
LINE
  8
0
 10
189.524
 20
-12.8711
 11
189.382
 21
-12.5912
  0
LINE
  8
0
 10
189.382
 20
-12.5912
 11
189.222
 21
-12.3209
  0
LINE
  8
0
 10
189.222
 20
-12.3209
 11
189.045
 21
-12.0611
  0
LINE
  8
0
 10
189.045
 20
-12.0611
 11
188.853
 21
-11.8129
  0
LINE
  8
0
 10
188.853
 20
-11.8129
 11
188.645
 21
-11.5773
  0
LINE
  8
0
 10
188.645
 20
-11.5773
 11
188.423
 21
-11.3552
  0
LINE
  8
0
 10
188.423
 20
-11.3552
 11
188.187
 21
-11.1474
  0
LINE
  8
0
 10
188.187
 20
-11.1474
 11
187.939
 21
-10.9549
  0
LINE
  8
0
 10
187.939
 20
-10.9549
 11
187.679
 21
-10.7784
  0
LINE
  8
0
 10
187.679
 20
-10.7784
 11
187.409
 21
-10.6185
  0
LINE
  8
0
 10
187.409
 20
-10.6185
 11
187.129
 21
-10.4759
  0
LINE
  8
0
 10
187.129
 20
-10.4759
 11
186.841
 21
-10.3511
  0
LINE
  8
0
 10
186.841
 20
-10.3511
 11
186.545
 21
-10.2447
  0
LINE
  8
0
 10
186.545
 20
-10.2447
 11
186.243
 21
-10.1571
  0
LINE
  8
0
 10
186.243
 20
-10.1571
 11
185.937
 21
-10.0886
  0
LINE
  8
0
 10
185.937
 20
-10.0886
 11
185.627
 21
-10.0394
  0
LINE
  8
0
 10
185.627
 20
-10.0394
 11
185.314
 21
-10.0099
  0
LINE
  8
0
 10
185.314
 20
-10.0099
 11
185
 21
-10
  0
LINE
  8
0
 10
185
 20
-10
 11
181.667
 21
-10
  0
LINE
  8
0
 10
181.667
 20
-10
 11
181.667
 21
-13.3333
  0
LINE
  8
0
 10
181.667
 20
-13.3333
 11
185
 21
-13.3333
  0
LINE
  8
0
 10
185
 20
-13.3333
 11
185.105
 21
-13.3366
  0
LINE
  8
0
 10
185.105
 20
-13.3366
 11
185.209
 21
-13.3465
  0
LINE
  8
0
 10
185.209
 20
-13.3465
 11
185.312
 21
-13.3629
  0
LINE
  8
0
 10
185.312
 20
-13.3629
 11
185.414
 21
-13.3857
  0
LINE
  8
0
 10
185.414
 20
-13.3857
 11
185.515
 21
-13.4149
  0
LINE
  8
0
 10
185.515
 20
-13.4149
 11
185.614
 21
-13.4504
  0
LINE
  8
0
 10
185.614
 20
-13.4504
 11
185.71
 21
-13.492
  0
LINE
  8
0
 10
185.71
 20
-13.492
 11
185.803
 21
-13.5395
  0
LINE
  8
0
 10
185.803
 20
-13.5395
 11
185.893
 21
-13.5928
  0
LINE
  8
0
 10
185.893
 20
-13.5928
 11
185.98
 21
-13.6516
  0
LINE
  8
0
 10
185.98
 20
-13.6516
 11
186.062
 21
-13.7158
  0
LINE
  8
0
 10
186.062
 20
-13.7158
 11
186.141
 21
-13.7851
  0
LINE
  8
0
 10
186.141
 20
-13.7851
 11
186.215
 21
-13.8591
  0
LINE
  8
0
 10
186.215
 20
-13.8591
 11
186.284
 21
-13.9376
  0
LINE
  8
0
 10
186.284
 20
-13.9376
 11
186.348
 21
-14.0204
  0
LINE
  8
0
 10
186.348
 20
-14.0204
 11
186.407
 21
-14.107
  0
LINE
  8
0
 10
186.407
 20
-14.107
 11
186.461
 21
-14.1971
  0
LINE
  8
0
 10
186.461
 20
-14.1971
 11
186.508
 21
-14.2904
  0
LINE
  8
0
 10
186.508
 20
-14.2904
 11
186.55
 21
-14.3865
  0
LINE
  8
0
 10
186.55
 20
-14.3865
 11
186.585
 21
-14.485
  0
LINE
  8
0
 10
186.585
 20
-14.485
 11
186.614
 21
-14.5855
  0
LINE
  8
0
 10
186.614
 20
-14.5855
 11
186.637
 21
-14.6877
  0
LINE
  8
0
 10
186.637
 20
-14.6877
 11
186.654
 21
-14.7911
  0
LINE
  8
0
 10
186.654
 20
-14.7911
 11
186.663
 21
-14.8953
  0
LINE
  8
0
 10
186.663
 20
-14.8953
 11
186.667
 21
-15
  0
LINE
  8
0
 10
186.667
 20
-15
 11
186.663
 21
-15.1047
  0
LINE
  8
0
 10
186.663
 20
-15.1047
 11
186.654
 21
-15.2089
  0
LINE
  8
0
 10
186.654
 20
-15.2089
 11
186.637
 21
-15.3123
  0
LINE
  8
0
 10
186.637
 20
-15.3123
 11
186.614
 21
-15.4145
  0
LINE
  8
0
 10
186.614
 20
-15.4145
 11
186.585
 21
-15.515
  0
LINE
  8
0
 10
186.585
 20
-15.515
 11
186.55
 21
-15.6135
  0
LINE
  8
0
 10
186.55
 20
-15.6135
 11
186.508
 21
-15.7096
  0
LINE
  8
0
 10
186.508
 20
-15.7096
 11
186.461
 21
-15.8029
  0
LINE
  8
0
 10
186.461
 20
-15.8029
 11
186.407
 21
-15.893
  0
LINE
  8
0
 10
186.407
 20
-15.893
 11
186.348
 21
-15.9796
  0
LINE
  8
0
 10
186.348
 20
-15.9796
 11
186.284
 21
-16.0624
  0
LINE
  8
0
 10
186.284
 20
-16.0624
 11
186.215
 21
-16.1409
  0
LINE
  8
0
 10
186.215
 20
-16.1409
 11
186.141
 21
-16.2149
  0
LINE
  8
0
 10
186.141
 20
-16.2149
 11
186.062
 21
-16.2842
  0
LINE
  8
0
 10
186.062
 20
-16.2842
 11
185.98
 21
-16.3484
  0
LINE
  8
0
 10
185.98
 20
-16.3484
 11
185.893
 21
-16.4072
  0
LINE
  8
0
 10
185.893
 20
-16.4072
 11
185.803
 21
-16.4605
  0
LINE
  8
0
 10
185.803
 20
-16.4605
 11
185.71
 21
-16.508
  0
LINE
  8
0
 10
185.71
 20
-16.508
 11
185.614
 21
-16.5496
  0
LINE
  8
0
 10
185.614
 20
-16.5496
 11
185.515
 21
-16.5851
  0
LINE
  8
0
 10
185.515
 20
-16.5851
 11
185.414
 21
-16.6143
  0
LINE
  8
0
 10
185.414
 20
-16.6143
 11
185.312
 21
-16.6371
  0
LINE
  8
0
 10
185.312
 20
-16.6371
 11
185.209
 21
-16.6535
  0
LINE
  8
0
 10
185.209
 20
-16.6535
 11
185.105
 21
-16.6634
  0
LINE
  8
0
 10
185.105
 20
-16.6634
 11
185
 21
-16.6667
  0
LINE
  8
0
 10
185
 20
-16.6667
 11
180
 21
-16.6667
  0
LINE
  8
0
 10
180
 20
-16.6667
 11
179.895
 21
-16.6634
  0
LINE
  8
0
 10
179.895
 20
-16.6634
 11
179.791
 21
-16.6535
  0
LINE
  8
0
 10
179.791
 20
-16.6535
 11
179.688
 21
-16.6371
  0
LINE
  8
0
 10
179.688
 20
-16.6371
 11
179.586
 21
-16.6143
  0
LINE
  8
0
 10
179.586
 20
-16.6143
 11
179.485
 21
-16.5851
  0
LINE
  8
0
 10
179.485
 20
-16.5851
 11
179.386
 21
-16.5496
  0
LINE
  8
0
 10
179.386
 20
-16.5496
 11
179.29
 21
-16.508
  0
LINE
  8
0
 10
179.29
 20
-16.508
 11
179.197
 21
-16.4605
  0
LINE
  8
0
 10
179.197
 20
-16.4605
 11
179.107
 21
-16.4072
  0
LINE
  8
0
 10
179.107
 20
-16.4072
 11
179.02
 21
-16.3484
  0
LINE
  8
0
 10
179.02
 20
-16.3484
 11
178.938
 21
-16.2842
  0
LINE
  8
0
 10
178.938
 20
-16.2842
 11
178.859
 21
-16.2149
  0
LINE
  8
0
 10
178.859
 20
-16.2149
 11
178.785
 21
-16.1409
  0
LINE
  8
0
 10
178.785
 20
-16.1409
 11
178.716
 21
-16.0624
  0
LINE
  8
0
 10
178.716
 20
-16.0624
 11
178.652
 21
-15.9796
  0
LINE
  8
0
 10
178.652
 20
-15.9796
 11
178.593
 21
-15.893
  0
LINE
  8
0
 10
178.593
 20
-15.893
 11
178.539
 21
-15.8029
  0
LINE
  8
0
 10
178.539
 20
-15.8029
 11
178.492
 21
-15.7096
  0
LINE
  8
0
 10
178.492
 20
-15.7096
 11
178.45
 21
-15.6135
  0
LINE
  8
0
 10
178.45
 20
-15.6135
 11
178.415
 21
-15.515
  0
LINE
  8
0
 10
178.415
 20
-15.515
 11
178.386
 21
-15.4145
  0
LINE
  8
0
 10
178.386
 20
-15.4145
 11
178.363
 21
-15.3123
  0
LINE
  8
0
 10
178.363
 20
-15.3123
 11
178.346
 21
-15.2089
  0
LINE
  8
0
 10
178.346
 20
-15.2089
 11
178.337
 21
-15.1047
  0
LINE
  8
0
 10
178.337
 20
-15.1047
 11
178.333
 21
-15
  0
LINE
  8
0
 10
178.333
 20
-15
 11
178.333
 21
-10
  0
LINE
  8
0
 10
178.333
 20
-10
 11
-178.333
 21
-10
  0
LINE
  8
0
 10
-178.333
 20
-10
 11
-178.333
 21
-15
  0
LINE
  8
0
 10
-178.333
 20
-15
 11
-178.337
 21
-15.1047
  0
LINE
  8
0
 10
-178.337
 20
-15.1047
 11
-178.346
 21
-15.2089
  0
LINE
  8
0
 10
-178.346
 20
-15.2089
 11
-178.363
 21
-15.3123
  0
LINE
  8
0
 10
-178.363
 20
-15.3123
 11
-178.386
 21
-15.4145
  0
LINE
  8
0
 10
-178.386
 20
-15.4145
 11
-178.415
 21
-15.515
  0
LINE
  8
0
 10
-178.415
 20
-15.515
 11
-178.45
 21
-15.6135
  0
LINE
  8
0
 10
-178.45
 20
-15.6135
 11
-178.492
 21
-15.7096
  0
LINE
  8
0
 10
-178.492
 20
-15.7096
 11
-178.539
 21
-15.8029
  0
LINE
  8
0
 10
-178.539
 20
-15.8029
 11
-178.593
 21
-15.893
  0
LINE
  8
0
 10
-178.593
 20
-15.893
 11
-178.652
 21
-15.9796
  0
LINE
  8
0
 10
-178.652
 20
-15.9796
 11
-178.716
 21
-16.0624
  0
LINE
  8
0
 10
-178.716
 20
-16.0624
 11
-178.785
 21
-16.1409
  0
LINE
  8
0
 10
-178.785
 20
-16.1409
 11
-178.859
 21
-16.2149
  0
LINE
  8
0
 10
-178.859
 20
-16.2149
 11
-178.938
 21
-16.2842
  0
LINE
  8
0
 10
-178.938
 20
-16.2842
 11
-179.02
 21
-16.3484
  0
LINE
  8
0
 10
-179.02
 20
-16.3484
 11
-179.107
 21
-16.4072
  0
LINE
  8
0
 10
-179.107
 20
-16.4072
 11
-179.197
 21
-16.4605
  0
LINE
  8
0
 10
-179.197
 20
-16.4605
 11
-179.29
 21
-16.508
  0
LINE
  8
0
 10
-179.29
 20
-16.508
 11
-179.386
 21
-16.5496
  0
LINE
  8
0
 10
-179.386
 20
-16.5496
 11
-179.485
 21
-16.5851
  0
LINE
  8
0
 10
-179.485
 20
-16.5851
 11
-179.586
 21
-16.6143
  0
LINE
  8
0
 10
-179.586
 20
-16.6143
 11
-179.688
 21
-16.6371
  0
LINE
  8
0
 10
-179.688
 20
-16.6371
 11
-179.791
 21
-16.6535
  0
LINE
  8
0
 10
-179.791
 20
-16.6535
 11
-179.895
 21
-16.6634
  0
LINE
  8
0
 10
-179.895
 20
-16.6634
 11
-180
 21
-16.6667
  0
LINE
  8
0
 10
-180
 20
-16.6667
 11
-185
 21
-16.6667
  0
LINE
  8
0
 10
-185
 20
-16.6667
 11
-185.105
 21
-16.6634
  0
LINE
  8
0
 10
-185.105
 20
-16.6634
 11
-185.209
 21
-16.6535
  0
LINE
  8
0
 10
-185.209
 20
-16.6535
 11
-185.312
 21
-16.6371
  0
LINE
  8
0
 10
-185.312
 20
-16.6371
 11
-185.414
 21
-16.6143
  0
LINE
  8
0
 10
-185.414
 20
-16.6143
 11
-185.515
 21
-16.5851
  0
LINE
  8
0
 10
-185.515
 20
-16.5851
 11
-185.614
 21
-16.5496
  0
LINE
  8
0
 10
-185.614
 20
-16.5496
 11
-185.71
 21
-16.508
  0
LINE
  8
0
 10
-185.71
 20
-16.508
 11
-185.803
 21
-16.4605
  0
LINE
  8
0
 10
-185.803
 20
-16.4605
 11
-185.893
 21
-16.4072
  0
LINE
  8
0
 10
-185.893
 20
-16.4072
 11
-185.98
 21
-16.3484
  0
LINE
  8
0
 10
-185.98
 20
-16.3484
 11
-186.062
 21
-16.2842
  0
LINE
  8
0
 10
-186.062
 20
-16.2842
 11
-186.141
 21
-16.2149
  0
LINE
  8
0
 10
-186.141
 20
-16.2149
 11
-186.215
 21
-16.1409
  0
LINE
  8
0
 10
-186.215
 20
-16.1409
 11
-186.284
 21
-16.0624
  0
LINE
  8
0
 10
-186.284
 20
-16.0624
 11
-186.348
 21
-15.9796
  0
LINE
  8
0
 10
-186.348
 20
-15.9796
 11
-186.407
 21
-15.893
  0
LINE
  8
0
 10
-186.407
 20
-15.893
 11
-186.461
 21
-15.8029
  0
LINE
  8
0
 10
-186.461
 20
-15.8029
 11
-186.508
 21
-15.7096
  0
LINE
  8
0
 10
-186.508
 20
-15.7096
 11
-186.55
 21
-15.6135
  0
LINE
  8
0
 10
-186.55
 20
-15.6135
 11
-186.585
 21
-15.515
  0
LINE
  8
0
 10
-186.585
 20
-15.515
 11
-186.614
 21
-15.4145
  0
LINE
  8
0
 10
-186.614
 20
-15.4145
 11
-186.637
 21
-15.3123
  0
LINE
  8
0
 10
-186.637
 20
-15.3123
 11
-186.654
 21
-15.2089
  0
LINE
  8
0
 10
-186.654
 20
-15.2089
 11
-186.663
 21
-15.1047
  0
LINE
  8
0
 10
-186.663
 20
-15.1047
 11
-186.667
 21
-15
  0
LINE
  8
0
 10
-186.667
 20
-15
 11
-186.663
 21
-14.8953
  0
LINE
  8
0
 10
-186.663
 20
-14.8953
 11
-186.654
 21
-14.7911
  0
LINE
  8
0
 10
-186.654
 20
-14.7911
 11
-186.637
 21
-14.6877
  0
LINE
  8
0
 10
-186.637
 20
-14.6877
 11
-186.614
 21
-14.5855
  0
LINE
  8
0
 10
-186.614
 20
-14.5855
 11
-186.585
 21
-14.485
  0
LINE
  8
0
 10
-186.585
 20
-14.485
 11
-186.55
 21
-14.3865
  0
LINE
  8
0
 10
-186.55
 20
-14.3865
 11
-186.508
 21
-14.2904
  0
LINE
  8
0
 10
-186.508
 20
-14.2904
 11
-186.461
 21
-14.1971
  0
LINE
  8
0
 10
-186.461
 20
-14.1971
 11
-186.407
 21
-14.107
  0
LINE
  8
0
 10
-186.407
 20
-14.107
 11
-186.348
 21
-14.0204
  0
LINE
  8
0
 10
-186.348
 20
-14.0204
 11
-186.284
 21
-13.9376
  0
LINE
  8
0
 10
-186.284
 20
-13.9376
 11
-186.215
 21
-13.8591
  0
LINE
  8
0
 10
-186.215
 20
-13.8591
 11
-186.141
 21
-13.7851
  0
LINE
  8
0
 10
-186.141
 20
-13.7851
 11
-186.062
 21
-13.7158
  0
LINE
  8
0
 10
-186.062
 20
-13.7158
 11
-185.98
 21
-13.6516
  0
LINE
  8
0
 10
-185.98
 20
-13.6516
 11
-185.893
 21
-13.5928
  0
LINE
  8
0
 10
-185.893
 20
-13.5928
 11
-185.803
 21
-13.5395
  0
LINE
  8
0
 10
-185.803
 20
-13.5395
 11
-185.71
 21
-13.492
  0
LINE
  8
0
 10
-185.71
 20
-13.492
 11
-185.614
 21
-13.4504
  0
LINE
  8
0
 10
-185.614
 20
-13.4504
 11
-185.515
 21
-13.4149
  0
LINE
  8
0
 10
-185.515
 20
-13.4149
 11
-185.414
 21
-13.3857
  0
LINE
  8
0
 10
-185.414
 20
-13.3857
 11
-185.312
 21
-13.3629
  0
LINE
  8
0
 10
-185.312
 20
-13.3629
 11
-185.209
 21
-13.3465
  0
LINE
  8
0
 10
-185.209
 20
-13.3465
 11
-185.105
 21
-13.3366
  0
LINE
  8
0
 10
-185.105
 20
-13.3366
 11
-185
 21
-13.3333
  0
LINE
  8
0
 10
-185
 20
-13.3333
 11
-181.667
 21
-13.3333
  0
LINE
  8
0
 10
-181.667
 20
-13.3333
 11
-181.667
 21
-10
  0
LINE
  8
0
 10
-181.667
 20
-10
 11
-185
 21
-10
  0
LINE
  8
0
 10
-185
 20
-10
 11
-185.314
 21
-10.0099
  0
LINE
  8
0
 10
-185.314
 20
-10.0099
 11
-185.627
 21
-10.0394
  0
LINE
  8
0
 10
-185.627
 20
-10.0394
 11
-185.937
 21
-10.0886
  0
LINE
  8
0
 10
-185.937
 20
-10.0886
 11
-186.243
 21
-10.1571
  0
LINE
  8
0
 10
-186.243
 20
-10.1571
 11
-186.545
 21
-10.2447
  0
LINE
  8
0
 10
-186.545
 20
-10.2447
 11
-186.841
 21
-10.3511
  0
LINE
  8
0
 10
-186.841
 20
-10.3511
 11
-187.129
 21
-10.4759
  0
LINE
  8
0
 10
-187.129
 20
-10.4759
 11
-187.409
 21
-10.6185
  0
LINE
  8
0
 10
-187.409
 20
-10.6185
 11
-187.679
 21
-10.7784
  0
LINE
  8
0
 10
-187.679
 20
-10.7784
 11
-187.939
 21
-10.9549
  0
LINE
  8
0
 10
-187.939
 20
-10.9549
 11
-188.187
 21
-11.1474
  0
LINE
  8
0
 10
-188.187
 20
-11.1474
 11
-188.423
 21
-11.3552
  0
LINE
  8
0
 10
-188.423
 20
-11.3552
 11
-188.645
 21
-11.5773
  0
LINE
  8
0
 10
-188.645
 20
-11.5773
 11
-188.853
 21
-11.8129
  0
LINE
  8
0
 10
-188.853
 20
-11.8129
 11
-189.045
 21
-12.0611
  0
LINE
  8
0
 10
-189.045
 20
-12.0611
 11
-189.222
 21
-12.3209
  0
LINE
  8
0
 10
-189.222
 20
-12.3209
 11
-189.382
 21
-12.5912
  0
LINE
  8
0
 10
-189.382
 20
-12.5912
 11
-189.524
 21
-12.8711
  0
LINE
  8
0
 10
-189.524
 20
-12.8711
 11
-189.649
 21
-13.1594
  0
LINE
  8
0
 10
-189.649
 20
-13.1594
 11
-189.755
 21
-13.4549
  0
LINE
  8
0
 10
-189.755
 20
-13.4549
 11
-189.843
 21
-13.7566
  0
LINE
  8
0
 10
-189.843
 20
-13.7566
 11
-189.911
 21
-14.0631
  0
LINE
  8
0
 10
-189.911
 20
-14.0631
 11
-189.961
 21
-14.3733
  0
LINE
  8
0
 10
-189.961
 20
-14.3733
 11
-189.99
 21
-14.686
  0
LINE
  8
0
 10
-189.99
 20
-14.686
 11
-190
 21
-15
  0
LINE
  8
0
 10
-162
 20
-17.5
 11
-162
 21
-12.5
  0
LINE
  8
0
 10
-162
 20
-12.5
 11
-160
 21
-12.5
  0
LINE
  8
0
 10
-160
 20
-12.5
 11
-160
 21
-14.25
  0
LINE
  8
0
 10
-160
 20
-14.25
 11
-151.5
 21
-14.25
  0
LINE
  8
0
 10
-151.5
 20
-14.25
 11
-151.5
 21
-15.75
  0
LINE
  8
0
 10
-151.5
 20
-15.75
 11
-160
 21
-15.75
  0
LINE
  8
0
 10
-160
 20
-15.75
 11
-160
 21
-17.5
  0
LINE
  8
0
 10
-160
 20
-17.5
 11
-162
 21
-17.5
  0
LINE
  8
0
 10
151.5
 20
-15.75
 11
151.5
 21
-14.25
  0
LINE
  8
0
 10
151.5
 20
-14.25
 11
160
 21
-14.25
  0
LINE
  8
0
 10
160
 20
-14.25
 11
160
 21
-12.5
  0
LINE
  8
0
 10
160
 20
-12.5
 11
162
 21
-12.5
  0
LINE
  8
0
 10
162
 20
-12.5
 11
162
 21
-17.5
  0
LINE
  8
0
 10
162
 20
-17.5
 11
160
 21
-17.5
  0
LINE
  8
0
 10
160
 20
-17.5
 11
160
 21
-15.75
  0
LINE
  8
0
 10
160
 20
-15.75
 11
151.5
 21
-15.75
  0
LINE
  8
0
 10
-190
 20
5
 11
-189.99
 21
4.68605
  0
LINE
  8
0
 10
-189.99
 20
4.68605
 11
-189.961
 21
4.37333
  0
LINE
  8
0
 10
-189.961
 20
4.37333
 11
-189.911
 21
4.06309
  0
LINE
  8
0
 10
-189.911
 20
4.06309
 11
-189.843
 21
3.75655
  0
LINE
  8
0
 10
-189.843
 20
3.75655
 11
-189.755
 21
3.45491
  0
LINE
  8
0
 10
-189.755
 20
3.45491
 11
-189.649
 21
3.15938
  0
LINE
  8
0
 10
-189.649
 20
3.15938
 11
-189.524
 21
2.8711
  0
LINE
  8
0
 10
-189.524
 20
2.8711
 11
-189.382
 21
2.59123
  0
LINE
  8
0
 10
-189.382
 20
2.59123
 11
-189.222
 21
2.32087
  0
LINE
  8
0
 10
-189.222
 20
2.32087
 11
-189.045
 21
2.06107
  0
LINE
  8
0
 10
-189.045
 20
2.06107
 11
-188.853
 21
1.81288
  0
LINE
  8
0
 10
-188.853
 20
1.81288
 11
-188.645
 21
1.57726
  0
LINE
  8
0
 10
-188.645
 20
1.57726
 11
-188.423
 21
1.35516
  0
LINE
  8
0
 10
-188.423
 20
1.35516
 11
-188.187
 21
1.14743
  0
LINE
  8
0
 10
-188.187
 20
1.14743
 11
-187.939
 21
0.954914
  0
LINE
  8
0
 10
-187.939
 20
0.954914
 11
-187.679
 21
0.77836
  0
LINE
  8
0
 10
-187.679
 20
0.77836
 11
-187.409
 21
0.618466
  0
LINE
  8
0
 10
-187.409
 20
0.618466
 11
-187.129
 21
0.475864
  0
LINE
  8
0
 10
-187.129
 20
0.475864
 11
-186.841
 21
0.351117
  0
LINE
  8
0
 10
-186.841
 20
0.351117
 11
-186.545
 21
0.244717
  0
LINE
  8
0
 10
-186.545
 20
0.244717
 11
-186.243
 21
0.157084
  0
LINE
  8
0
 10
-186.243
 20
0.157084
 11
-185.937
 21
0.088563
  0
LINE
  8
0
 10
-185.937
 20
0.088563
 11
-185.627
 21
0.0394258
  0
LINE
  8
0
 10
-185.627
 20
0.0394258
 11
-185.314
 21
0.00986576
  0
LINE
  8
0
 10
-185.314
 20
0.00986576
 11
-185
 21
0
  0
LINE
  8
0
 10
-185
 20
0
 11
185
 21
0
  0
LINE
  8
0
 10
185
 20
0
 11
185.314
 21
0.00986576
  0
LINE
  8
0
 10
185.314
 20
0.00986576
 11
185.627
 21
0.0394258
  0
LINE
  8
0
 10
185.627
 20
0.0394258
 11
185.937
 21
0.088563
  0
LINE
  8
0
 10
185.937
 20
0.088563
 11
186.243
 21
0.157084
  0
LINE
  8
0
 10
186.243
 20
0.157084
 11
186.545
 21
0.244717
  0
LINE
  8
0
 10
186.545
 20
0.244717
 11
186.841
 21
0.351117
  0
LINE
  8
0
 10
186.841
 20
0.351117
 11
187.129
 21
0.475864
  0
LINE
  8
0
 10
187.129
 20
0.475864
 11
187.409
 21
0.618466
  0
LINE
  8
0
 10
187.409
 20
0.618466
 11
187.679
 21
0.77836
  0
LINE
  8
0
 10
187.679
 20
0.77836
 11
187.939
 21
0.954914
  0
LINE
  8
0
 10
187.939
 20
0.954914
 11
188.187
 21
1.14743
  0
LINE
  8
0
 10
188.187
 20
1.14743
 11
188.423
 21
1.35516
  0
LINE
  8
0
 10
188.423
 20
1.35516
 11
188.645
 21
1.57726
  0
LINE
  8
0
 10
188.645
 20
1.57726
 11
188.853
 21
1.81288
  0
LINE
  8
0
 10
188.853
 20
1.81288
 11
189.045
 21
2.06107
  0
LINE
  8
0
 10
189.045
 20
2.06107
 11
189.222
 21
2.32087
  0
LINE
  8
0
 10
189.222
 20
2.32087
 11
189.382
 21
2.59123
  0
LINE
  8
0
 10
189.382
 20
2.59123
 11
189.524
 21
2.8711
  0
LINE
  8
0
 10
189.524
 20
2.8711
 11
189.649
 21
3.15938
  0
LINE
  8
0
 10
189.649
 20
3.15938
 11
189.755
 21
3.45491
  0
LINE
  8
0
 10
189.755
 20
3.45491
 11
189.843
 21
3.75655
  0
LINE
  8
0
 10
189.843
 20
3.75655
 11
189.911
 21
4.06309
  0
LINE
  8
0
 10
189.911
 20
4.06309
 11
189.961
 21
4.37333
  0
LINE
  8
0
 10
189.961
 20
4.37333
 11
189.99
 21
4.68605
  0
LINE
  8
0
 10
189.99
 20
4.68605
 11
190
 21
5
  0
LINE
  8
0
 10
190
 20
5
 11
189.99
 21
5.31395
  0
LINE
  8
0
 10
189.99
 20
5.31395
 11
189.961
 21
5.62667
  0
LINE
  8
0
 10
189.961
 20
5.62667
 11
189.911
 21
5.93691
  0
LINE
  8
0
 10
189.911
 20
5.93691
 11
189.843
 21
6.24345
  0
LINE
  8
0
 10
189.843
 20
6.24345
 11
189.755
 21
6.54508
  0
LINE
  8
0
 10
189.755
 20
6.54508
 11
189.649
 21
6.84062
  0
LINE
  8
0
 10
189.649
 20
6.84062
 11
189.524
 21
7.1289
  0
LINE
  8
0
 10
189.524
 20
7.1289
 11
189.382
 21
7.40877
  0
LINE
  8
0
 10
189.382
 20
7.40877
 11
189.222
 21
7.67913
  0
LINE
  8
0
 10
189.222
 20
7.67913
 11
189.045
 21
7.93893
  0
LINE
  8
0
 10
189.045
 20
7.93893
 11
188.853
 21
8.18712
  0
LINE
  8
0
 10
188.853
 20
8.18712
 11
188.645
 21
8.42274
  0
LINE
  8
0
 10
188.645
 20
8.42274
 11
188.423
 21
8.64484
  0
LINE
  8
0
 10
188.423
 20
8.64484
 11
188.187
 21
8.85257
  0
LINE
  8
0
 10
188.187
 20
8.85257
 11
187.939
 21
9.04508
  0
LINE
  8
0
 10
187.939
 20
9.04508
 11
187.679
 21
9.22164
  0
LINE
  8
0
 10
187.679
 20
9.22164
 11
187.409
 21
9.38153
  0
LINE
  8
0
 10
187.409
 20
9.38153
 11
187.129
 21
9.52413
  0
LINE
  8
0
 10
187.129
 20
9.52413
 11
186.841
 21
9.64888
  0
LINE
  8
0
 10
186.841
 20
9.64888
 11
186.545
 21
9.75528
  0
LINE
  8
0
 10
186.545
 20
9.75528
 11
186.243
 21
9.84292
  0
LINE
  8
0
 10
186.243
 20
9.84292
 11
185.937
 21
9.91144
  0
LINE
  8
0
 10
185.937
 20
9.91144
 11
185.627
 21
9.96057
  0
LINE
  8
0
 10
185.627
 20
9.96057
 11
185.314
 21
9.99013
  0
LINE
  8
0
 10
185.314
 20
9.99013
 11
185
 21
10
  0
LINE
  8
0
 10
185
 20
10
 11
181.667
 21
10
  0
LINE
  8
0
 10
181.667
 20
10
 11
181.667
 21
6.66667
  0
LINE
  8
0
 10
181.667
 20
6.66667
 11
185
 21
6.66667
  0
LINE
  8
0
 10
185
 20
6.66667
 11
185.105
 21
6.66338
  0
LINE
  8
0
 10
185.105
 20
6.66338
 11
185.209
 21
6.65352
  0
LINE
  8
0
 10
185.209
 20
6.65352
 11
185.312
 21
6.63715
  0
LINE
  8
0
 10
185.312
 20
6.63715
 11
185.414
 21
6.6143
  0
LINE
  8
0
 10
185.414
 20
6.6143
 11
185.515
 21
6.58509
  0
LINE
  8
0
 10
185.515
 20
6.58509
 11
185.614
 21
6.54963
  0
LINE
  8
0
 10
185.614
 20
6.54963
 11
185.71
 21
6.50804
  0
LINE
  8
0
 10
185.71
 20
6.50804
 11
185.803
 21
6.46051
  0
LINE
  8
0
 10
185.803
 20
6.46051
 11
185.893
 21
6.40721
  0
LINE
  8
0
 10
185.893
 20
6.40721
 11
185.98
 21
6.34836
  0
LINE
  8
0
 10
185.98
 20
6.34836
 11
186.062
 21
6.28419
  0
LINE
  8
0
 10
186.062
 20
6.28419
 11
186.141
 21
6.21495
  0
LINE
  8
0
 10
186.141
 20
6.21495
 11
186.215
 21
6.14091
  0
LINE
  8
0
 10
186.215
 20
6.14091
 11
186.284
 21
6.06237
  0
LINE
  8
0
 10
186.284
 20
6.06237
 11
186.348
 21
5.97964
  0
LINE
  8
0
 10
186.348
 20
5.97964
 11
186.407
 21
5.89304
  0
LINE
  8
0
 10
186.407
 20
5.89304
 11
186.461
 21
5.80292
  0
LINE
  8
0
 10
186.461
 20
5.80292
 11
186.508
 21
5.70963
  0
LINE
  8
0
 10
186.508
 20
5.70963
 11
186.55
 21
5.61354
  0
LINE
  8
0
 10
186.55
 20
5.61354
 11
186.585
 21
5.51503
  0
LINE
  8
0
 10
186.585
 20
5.51503
 11
186.614
 21
5.41448
  0
LINE
  8
0
 10
186.614
 20
5.41448
 11
186.637
 21
5.3123
  0
LINE
  8
0
 10
186.637
 20
5.3123
 11
186.654
 21
5.20889
  0
LINE
  8
0
 10
186.654
 20
5.20889
 11
186.663
 21
5.10465
  0
LINE
  8
0
 10
186.663
 20
5.10465
 11
186.667
 21
5
  0
LINE
  8
0
 10
186.667
 20
5
 11
186.663
 21
4.89535
  0
LINE
  8
0
 10
186.663
 20
4.89535
 11
186.654
 21
4.79111
  0
LINE
  8
0
 10
186.654
 20
4.79111
 11
186.637
 21
4.6877
  0
LINE
  8
0
 10
186.637
 20
4.6877
 11
186.614
 21
4.58552
  0
LINE
  8
0
 10
186.614
 20
4.58552
 11
186.585
 21
4.48497
  0
LINE
  8
0
 10
186.585
 20
4.48497
 11
186.55
 21
4.38646
  0
LINE
  8
0
 10
186.55
 20
4.38646
 11
186.508
 21
4.29037
  0
LINE
  8
0
 10
186.508
 20
4.29037
 11
186.461
 21
4.19708
  0
LINE
  8
0
 10
186.461
 20
4.19708
 11
186.407
 21
4.10695
  0
LINE
  8
0
 10
186.407
 20
4.10695
 11
186.348
 21
4.02036
  0
LINE
  8
0
 10
186.348
 20
4.02036
 11
186.284
 21
3.93763
  0
LINE
  8
0
 10
186.284
 20
3.93763
 11
186.215
 21
3.85909
  0
LINE
  8
0
 10
186.215
 20
3.85909
 11
186.141
 21
3.78505
  0
LINE
  8
0
 10
186.141
 20
3.78505
 11
186.062
 21
3.71581
  0
LINE
  8
0
 10
186.062
 20
3.71581
 11
185.98
 21
3.65164
  0
LINE
  8
0
 10
185.98
 20
3.65164
 11
185.893
 21
3.59279
  0
LINE
  8
0
 10
185.893
 20
3.59279
 11
185.803
 21
3.53949
  0
LINE
  8
0
 10
185.803
 20
3.53949
 11
185.71
 21
3.49195
  0
LINE
  8
0
 10
185.71
 20
3.49195
 11
185.614
 21
3.45037
  0
LINE
  8
0
 10
185.614
 20
3.45037
 11
185.515
 21
3.41491
  0
LINE
  8
0
 10
185.515
 20
3.41491
 11
185.414
 21
3.38569
  0
LINE
  8
0
 10
185.414
 20
3.38569
 11
185.312
 21
3.36285
  0
LINE
  8
0
 10
185.312
 20
3.36285
 11
185.209
 21
3.34647
  0
LINE
  8
0
 10
185.209
 20
3.34647
 11
185.105
 21
3.33662
  0
LINE
  8
0
 10
185.105
 20
3.33662
 11
185
 21
3.33333
  0
LINE
  8
0
 10
185
 20
3.33333
 11
180
 21
3.33333
  0
LINE
  8
0
 10
180
 20
3.33333
 11
179.895
 21
3.33662
  0
LINE
  8
0
 10
179.895
 20
3.33662
 11
179.791
 21
3.34647
  0
LINE
  8
0
 10
179.791
 20
3.34647
 11
179.688
 21
3.36285
  0
LINE
  8
0
 10
179.688
 20
3.36285
 11
179.586
 21
3.38569
  0
LINE
  8
0
 10
179.586
 20
3.38569
 11
179.485
 21
3.41491
  0
LINE
  8
0
 10
179.485
 20
3.41491
 11
179.386
 21
3.45037
  0
LINE
  8
0
 10
179.386
 20
3.45037
 11
179.29
 21
3.49195
  0
LINE
  8
0
 10
179.29
 20
3.49195
 11
179.197
 21
3.53949
  0
LINE
  8
0
 10
179.197
 20
3.53949
 11
179.107
 21
3.59279
  0
LINE
  8
0
 10
179.107
 20
3.59279
 11
179.02
 21
3.65164
  0
LINE
  8
0
 10
179.02
 20
3.65164
 11
178.938
 21
3.71581
  0
LINE
  8
0
 10
178.938
 20
3.71581
 11
178.859
 21
3.78505
  0
LINE
  8
0
 10
178.859
 20
3.78505
 11
178.785
 21
3.85909
  0
LINE
  8
0
 10
178.785
 20
3.85909
 11
178.716
 21
3.93763
  0
LINE
  8
0
 10
178.716
 20
3.93763
 11
178.652
 21
4.02036
  0
LINE
  8
0
 10
178.652
 20
4.02036
 11
178.593
 21
4.10695
  0
LINE
  8
0
 10
178.593
 20
4.10695
 11
178.539
 21
4.19708
  0
LINE
  8
0
 10
178.539
 20
4.19708
 11
178.492
 21
4.29037
  0
LINE
  8
0
 10
178.492
 20
4.29037
 11
178.45
 21
4.38646
  0
LINE
  8
0
 10
178.45
 20
4.38646
 11
178.415
 21
4.48497
  0
LINE
  8
0
 10
178.415
 20
4.48497
 11
178.386
 21
4.58552
  0
LINE
  8
0
 10
178.386
 20
4.58552
 11
178.363
 21
4.6877
  0
LINE
  8
0
 10
178.363
 20
4.6877
 11
178.346
 21
4.79111
  0
LINE
  8
0
 10
178.346
 20
4.79111
 11
178.337
 21
4.89535
  0
LINE
  8
0
 10
178.337
 20
4.89535
 11
178.333
 21
5
  0
LINE
  8
0
 10
178.333
 20
5
 11
178.333
 21
10
  0
LINE
  8
0
 10
178.333
 20
10
 11
-178.333
 21
10
  0
LINE
  8
0
 10
-178.333
 20
10
 11
-178.333
 21
5
  0
LINE
  8
0
 10
-178.333
 20
5
 11
-178.337
 21
4.89535
  0
LINE
  8
0
 10
-178.337
 20
4.89535
 11
-178.346
 21
4.79111
  0
LINE
  8
0
 10
-178.346
 20
4.79111
 11
-178.363
 21
4.6877
  0
LINE
  8
0
 10
-178.363
 20
4.6877
 11
-178.386
 21
4.58552
  0
LINE
  8
0
 10
-178.386
 20
4.58552
 11
-178.415
 21
4.48497
  0
LINE
  8
0
 10
-178.415
 20
4.48497
 11
-178.45
 21
4.38646
  0
LINE
  8
0
 10
-178.45
 20
4.38646
 11
-178.492
 21
4.29037
  0
LINE
  8
0
 10
-178.492
 20
4.29037
 11
-178.539
 21
4.19708
  0
LINE
  8
0
 10
-178.539
 20
4.19708
 11
-178.593
 21
4.10695
  0
LINE
  8
0
 10
-178.593
 20
4.10695
 11
-178.652
 21
4.02036
  0
LINE
  8
0
 10
-178.652
 20
4.02036
 11
-178.716
 21
3.93763
  0
LINE
  8
0
 10
-178.716
 20
3.93763
 11
-178.785
 21
3.85909
  0
LINE
  8
0
 10
-178.785
 20
3.85909
 11
-178.859
 21
3.78505
  0
LINE
  8
0
 10
-178.859
 20
3.78505
 11
-178.938
 21
3.71581
  0
LINE
  8
0
 10
-178.938
 20
3.71581
 11
-179.02
 21
3.65164
  0
LINE
  8
0
 10
-179.02
 20
3.65164
 11
-179.107
 21
3.59279
  0
LINE
  8
0
 10
-179.107
 20
3.59279
 11
-179.197
 21
3.53949
  0
LINE
  8
0
 10
-179.197
 20
3.53949
 11
-179.29
 21
3.49195
  0
LINE
  8
0
 10
-179.29
 20
3.49195
 11
-179.386
 21
3.45037
  0
LINE
  8
0
 10
-179.386
 20
3.45037
 11
-179.485
 21
3.41491
  0
LINE
  8
0
 10
-179.485
 20
3.41491
 11
-179.586
 21
3.38569
  0
LINE
  8
0
 10
-179.586
 20
3.38569
 11
-179.688
 21
3.36285
  0
LINE
  8
0
 10
-179.688
 20
3.36285
 11
-179.791
 21
3.34647
  0
LINE
  8
0
 10
-179.791
 20
3.34647
 11
-179.895
 21
3.33662
  0
LINE
  8
0
 10
-179.895
 20
3.33662
 11
-180
 21
3.33333
  0
LINE
  8
0
 10
-180
 20
3.33333
 11
-185
 21
3.33333
  0
LINE
  8
0
 10
-185
 20
3.33333
 11
-185.105
 21
3.33662
  0
LINE
  8
0
 10
-185.105
 20
3.33662
 11
-185.209
 21
3.34647
  0
LINE
  8
0
 10
-185.209
 20
3.34647
 11
-185.312
 21
3.36285
  0
LINE
  8
0
 10
-185.312
 20
3.36285
 11
-185.414
 21
3.38569
  0
LINE
  8
0
 10
-185.414
 20
3.38569
 11
-185.515
 21
3.41491
  0
LINE
  8
0
 10
-185.515
 20
3.41491
 11
-185.614
 21
3.45037
  0
LINE
  8
0
 10
-185.614
 20
3.45037
 11
-185.71
 21
3.49195
  0
LINE
  8
0
 10
-185.71
 20
3.49195
 11
-185.803
 21
3.53949
  0
LINE
  8
0
 10
-185.803
 20
3.53949
 11
-185.893
 21
3.59279
  0
LINE
  8
0
 10
-185.893
 20
3.59279
 11
-185.98
 21
3.65164
  0
LINE
  8
0
 10
-185.98
 20
3.65164
 11
-186.062
 21
3.71581
  0
LINE
  8
0
 10
-186.062
 20
3.71581
 11
-186.141
 21
3.78505
  0
LINE
  8
0
 10
-186.141
 20
3.78505
 11
-186.215
 21
3.85909
  0
LINE
  8
0
 10
-186.215
 20
3.85909
 11
-186.284
 21
3.93763
  0
LINE
  8
0
 10
-186.284
 20
3.93763
 11
-186.348
 21
4.02036
  0
LINE
  8
0
 10
-186.348
 20
4.02036
 11
-186.407
 21
4.10695
  0
LINE
  8
0
 10
-186.407
 20
4.10695
 11
-186.461
 21
4.19708
  0
LINE
  8
0
 10
-186.461
 20
4.19708
 11
-186.508
 21
4.29037
  0
LINE
  8
0
 10
-186.508
 20
4.29037
 11
-186.55
 21
4.38646
  0
LINE
  8
0
 10
-186.55
 20
4.38646
 11
-186.585
 21
4.48497
  0
LINE
  8
0
 10
-186.585
 20
4.48497
 11
-186.614
 21
4.58552
  0
LINE
  8
0
 10
-186.614
 20
4.58552
 11
-186.637
 21
4.6877
  0
LINE
  8
0
 10
-186.637
 20
4.6877
 11
-186.654
 21
4.79111
  0
LINE
  8
0
 10
-186.654
 20
4.79111
 11
-186.663
 21
4.89535
  0
LINE
  8
0
 10
-186.663
 20
4.89535
 11
-186.667
 21
5
  0
LINE
  8
0
 10
-186.667
 20
5
 11
-186.663
 21
5.10465
  0
LINE
  8
0
 10
-186.663
 20
5.10465
 11
-186.654
 21
5.20889
  0
LINE
  8
0
 10
-186.654
 20
5.20889
 11
-186.637
 21
5.3123
  0
LINE
  8
0
 10
-186.637
 20
5.3123
 11
-186.614
 21
5.41448
  0
LINE
  8
0
 10
-186.614
 20
5.41448
 11
-186.585
 21
5.51503
  0
LINE
  8
0
 10
-186.585
 20
5.51503
 11
-186.55
 21
5.61354
  0
LINE
  8
0
 10
-186.55
 20
5.61354
 11
-186.508
 21
5.70963
  0
LINE
  8
0
 10
-186.508
 20
5.70963
 11
-186.461
 21
5.80292
  0
LINE
  8
0
 10
-186.461
 20
5.80292
 11
-186.407
 21
5.89304
  0
LINE
  8
0
 10
-186.407
 20
5.89304
 11
-186.348
 21
5.97964
  0
LINE
  8
0
 10
-186.348
 20
5.97964
 11
-186.284
 21
6.06237
  0
LINE
  8
0
 10
-186.284
 20
6.06237
 11
-186.215
 21
6.14091
  0
LINE
  8
0
 10
-186.215
 20
6.14091
 11
-186.141
 21
6.21495
  0
LINE
  8
0
 10
-186.141
 20
6.21495
 11
-186.062
 21
6.28419
  0
LINE
  8
0
 10
-186.062
 20
6.28419
 11
-185.98
 21
6.34836
  0
LINE
  8
0
 10
-185.98
 20
6.34836
 11
-185.893
 21
6.40721
  0
LINE
  8
0
 10
-185.893
 20
6.40721
 11
-185.803
 21
6.46051
  0
LINE
  8
0
 10
-185.803
 20
6.46051
 11
-185.71
 21
6.50804
  0
LINE
  8
0
 10
-185.71
 20
6.50804
 11
-185.614
 21
6.54963
  0
LINE
  8
0
 10
-185.614
 20
6.54963
 11
-185.515
 21
6.58509
  0
LINE
  8
0
 10
-185.515
 20
6.58509
 11
-185.414
 21
6.6143
  0
LINE
  8
0
 10
-185.414
 20
6.6143
 11
-185.312
 21
6.63715
  0
LINE
  8
0
 10
-185.312
 20
6.63715
 11
-185.209
 21
6.65352
  0
LINE
  8
0
 10
-185.209
 20
6.65352
 11
-185.105
 21
6.66338
  0
LINE
  8
0
 10
-185.105
 20
6.66338
 11
-185
 21
6.66667
  0
LINE
  8
0
 10
-185
 20
6.66667
 11
-181.667
 21
6.66667
  0
LINE
  8
0
 10
-181.667
 20
6.66667
 11
-181.667
 21
10
  0
LINE
  8
0
 10
-181.667
 20
10
 11
-185
 21
10
  0
LINE
  8
0
 10
-185
 20
10
 11
-185.314
 21
9.99013
  0
LINE
  8
0
 10
-185.314
 20
9.99013
 11
-185.627
 21
9.96057
  0
LINE
  8
0
 10
-185.627
 20
9.96057
 11
-185.937
 21
9.91144
  0
LINE
  8
0
 10
-185.937
 20
9.91144
 11
-186.243
 21
9.84292
  0
LINE
  8
0
 10
-186.243
 20
9.84292
 11
-186.545
 21
9.75528
  0
LINE
  8
0
 10
-186.545
 20
9.75528
 11
-186.841
 21
9.64888
  0
LINE
  8
0
 10
-186.841
 20
9.64888
 11
-187.129
 21
9.52413
  0
LINE
  8
0
 10
-187.129
 20
9.52413
 11
-187.409
 21
9.38153
  0
LINE
  8
0
 10
-187.409
 20
9.38153
 11
-187.679
 21
9.22164
  0
LINE
  8
0
 10
-187.679
 20
9.22164
 11
-187.939
 21
9.04508
  0
LINE
  8
0
 10
-187.939
 20
9.04508
 11
-188.187
 21
8.85257
  0
LINE
  8
0
 10
-188.187
 20
8.85257
 11
-188.423
 21
8.64484
  0
LINE
  8
0
 10
-188.423
 20
8.64484
 11
-188.645
 21
8.42274
  0
LINE
  8
0
 10
-188.645
 20
8.42274
 11
-188.853
 21
8.18712
  0
LINE
  8
0
 10
-188.853
 20
8.18712
 11
-189.045
 21
7.93893
  0
LINE
  8
0
 10
-189.045
 20
7.93893
 11
-189.222
 21
7.67913
  0
LINE
  8
0
 10
-189.222
 20
7.67913
 11
-189.382
 21
7.40877
  0
LINE
  8
0
 10
-189.382
 20
7.40877
 11
-189.524
 21
7.1289
  0
LINE
  8
0
 10
-189.524
 20
7.1289
 11
-189.649
 21
6.84062
  0
LINE
  8
0
 10
-189.649
 20
6.84062
 11
-189.755
 21
6.54508
  0
LINE
  8
0
 10
-189.755
 20
6.54508
 11
-189.843
 21
6.24345
  0
LINE
  8
0
 10
-189.843
 20
6.24345
 11
-189.911
 21
5.93691
  0
LINE
  8
0
 10
-189.911
 20
5.93691
 11
-189.961
 21
5.62667
  0
LINE
  8
0
 10
-189.961
 20
5.62667
 11
-189.99
 21
5.31395
  0
LINE
  8
0
 10
-189.99
 20
5.31395
 11
-190
 21
5
  0
LINE
  8
0
 10
-162
 20
2.5
 11
-162
 21
7.5
  0
LINE
  8
0
 10
-162
 20
7.5
 11
-160
 21
7.5
  0
LINE
  8
0
 10
-160
 20
7.5
 11
-160
 21
5.75
  0
LINE
  8
0
 10
-160
 20
5.75
 11
-151.5
 21
5.75
  0
LINE
  8
0
 10
-151.5
 20
5.75
 11
-151.5
 21
4.25
  0
LINE
  8
0
 10
-151.5
 20
4.25
 11
-160
 21
4.25
  0
LINE
  8
0
 10
-160
 20
4.25
 11
-160
 21
2.5
  0
LINE
  8
0
 10
-160
 20
2.5
 11
-162
 21
2.5
  0
LINE
  8
0
 10
151.5
 20
4.25
 11
151.5
 21
5.75
  0
LINE
  8
0
 10
151.5
 20
5.75
 11
160
 21
5.75
  0
LINE
  8
0
 10
160
 20
5.75
 11
160
 21
7.5
  0
LINE
  8
0
 10
160
 20
7.5
 11
162
 21
7.5
  0
LINE
  8
0
 10
162
 20
7.5
 11
162
 21
2.5
  0
LINE
  8
0
 10
162
 20
2.5
 11
160
 21
2.5
  0
LINE
  8
0
 10
160
 20
2.5
 11
160
 21
4.25
  0
LINE
  8
0
 10
160
 20
4.25
 11
151.5
 21
4.25
  0
LINE
  8
0
 10
-117
 20
25
 11
-116.99
 21
24.686
  0
LINE
  8
0
 10
-116.99
 20
24.686
 11
-116.961
 21
24.3733
  0
LINE
  8
0
 10
-116.961
 20
24.3733
 11
-116.911
 21
24.0631
  0
LINE
  8
0
 10
-116.911
 20
24.0631
 11
-116.843
 21
23.7565
  0
LINE
  8
0
 10
-116.843
 20
23.7565
 11
-116.755
 21
23.4549
  0
LINE
  8
0
 10
-116.755
 20
23.4549
 11
-116.649
 21
23.1594
  0
LINE
  8
0
 10
-116.649
 20
23.1594
 11
-116.524
 21
22.8711
  0
LINE
  8
0
 10
-116.524
 20
22.8711
 11
-116.382
 21
22.5912
  0
LINE
  8
0
 10
-116.382
 20
22.5912
 11
-116.222
 21
22.3209
  0
LINE
  8
0
 10
-116.222
 20
22.3209
 11
-116.045
 21
22.0611
  0
LINE
  8
0
 10
-116.045
 20
22.0611
 11
-115.853
 21
21.8129
  0
LINE
  8
0
 10
-115.853
 20
21.8129
 11
-115.645
 21
21.5773
  0
LINE
  8
0
 10
-115.645
 20
21.5773
 11
-115.423
 21
21.3552
  0
LINE
  8
0
 10
-115.423
 20
21.3552
 11
-115.187
 21
21.1474
  0
LINE
  8
0
 10
-115.187
 20
21.1474
 11
-114.939
 21
20.9549
  0
LINE
  8
0
 10
-114.939
 20
20.9549
 11
-114.679
 21
20.7784
  0
LINE
  8
0
 10
-114.679
 20
20.7784
 11
-114.409
 21
20.6185
  0
LINE
  8
0
 10
-114.409
 20
20.6185
 11
-114.129
 21
20.4759
  0
LINE
  8
0
 10
-114.129
 20
20.4759
 11
-113.841
 21
20.3511
  0
LINE
  8
0
 10
-113.841
 20
20.3511
 11
-113.545
 21
20.2447
  0
LINE
  8
0
 10
-113.545
 20
20.2447
 11
-113.243
 21
20.1571
  0
LINE
  8
0
 10
-113.243
 20
20.1571
 11
-112.937
 21
20.0886
  0
LINE
  8
0
 10
-112.937
 20
20.0886
 11
-112.627
 21
20.0394
  0
LINE
  8
0
 10
-112.627
 20
20.0394
 11
-112.314
 21
20.0099
  0
LINE
  8
0
 10
-112.314
 20
20.0099
 11
-112
 21
20
  0
LINE
  8
0
 10
-112
 20
20
 11
-112
 21
22.5
  0
LINE
  8
0
 10
-112
 20
22.5
 11
-110
 21
22.5
  0
LINE
  8
0
 10
-110
 20
22.5
 11
-110
 21
20
  0
LINE
  8
0
 10
-110
 20
20
 11
110
 21
20
  0
LINE
  8
0
 10
110
 20
20
 11
110
 21
22.5
  0
LINE
  8
0
 10
110
 20
22.5
 11
112
 21
22.5
  0
LINE
  8
0
 10
112
 20
22.5
 11
112
 21
20
  0
LINE
  8
0
 10
112
 20
20
 11
112.314
 21
20.0099
  0
LINE
  8
0
 10
112.314
 20
20.0099
 11
112.627
 21
20.0394
  0
LINE
  8
0
 10
112.627
 20
20.0394
 11
112.937
 21
20.0886
  0
LINE
  8
0
 10
112.937
 20
20.0886
 11
113.243
 21
20.1571
  0
LINE
  8
0
 10
113.243
 20
20.1571
 11
113.545
 21
20.2447
  0
LINE
  8
0
 10
113.545
 20
20.2447
 11
113.841
 21
20.3511
  0
LINE
  8
0
 10
113.841
 20
20.3511
 11
114.129
 21
20.4759
  0
LINE
  8
0
 10
114.129
 20
20.4759
 11
114.409
 21
20.6185
  0
LINE
  8
0
 10
114.409
 20
20.6185
 11
114.679
 21
20.7784
  0
LINE
  8
0
 10
114.679
 20
20.7784
 11
114.939
 21
20.9549
  0
LINE
  8
0
 10
114.939
 20
20.9549
 11
115.187
 21
21.1474
  0
LINE
  8
0
 10
115.187
 20
21.1474
 11
115.423
 21
21.3552
  0
LINE
  8
0
 10
115.423
 20
21.3552
 11
115.645
 21
21.5773
  0
LINE
  8
0
 10
115.645
 20
21.5773
 11
115.853
 21
21.8129
  0
LINE
  8
0
 10
115.853
 20
21.8129
 11
116.045
 21
22.0611
  0
LINE
  8
0
 10
116.045
 20
22.0611
 11
116.222
 21
22.3209
  0
LINE
  8
0
 10
116.222
 20
22.3209
 11
116.382
 21
22.5912
  0
LINE
  8
0
 10
116.382
 20
22.5912
 11
116.524
 21
22.8711
  0
LINE
  8
0
 10
116.524
 20
22.8711
 11
116.649
 21
23.1594
  0
LINE
  8
0
 10
116.649
 20
23.1594
 11
116.755
 21
23.4549
  0
LINE
  8
0
 10
116.755
 20
23.4549
 11
116.843
 21
23.7565
  0
LINE
  8
0
 10
116.843
 20
23.7565
 11
116.911
 21
24.0631
  0
LINE
  8
0
 10
116.911
 20
24.0631
 11
116.961
 21
24.3733
  0
LINE
  8
0
 10
116.961
 20
24.3733
 11
116.99
 21
24.686
  0
LINE
  8
0
 10
116.99
 20
24.686
 11
117
 21
25
  0
LINE
  8
0
 10
117
 20
25
 11
116.99
 21
25.314
  0
LINE
  8
0
 10
116.99
 20
25.314
 11
116.961
 21
25.6267
  0
LINE
  8
0
 10
116.961
 20
25.6267
 11
116.911
 21
25.9369
  0
LINE
  8
0
 10
116.911
 20
25.9369
 11
116.843
 21
26.2434
  0
LINE
  8
0
 10
116.843
 20
26.2434
 11
116.755
 21
26.5451
  0
LINE
  8
0
 10
116.755
 20
26.5451
 11
116.649
 21
26.8406
  0
LINE
  8
0
 10
116.649
 20
26.8406
 11
116.524
 21
27.1289
  0
LINE
  8
0
 10
116.524
 20
27.1289
 11
116.382
 21
27.4088
  0
LINE
  8
0
 10
116.382
 20
27.4088
 11
116.222
 21
27.6791
  0
LINE
  8
0
 10
116.222
 20
27.6791
 11
116.045
 21
27.9389
  0
LINE
  8
0
 10
116.045
 20
27.9389
 11
115.853
 21
28.1871
  0
LINE
  8
0
 10
115.853
 20
28.1871
 11
115.645
 21
28.4227
  0
LINE
  8
0
 10
115.645
 20
28.4227
 11
115.423
 21
28.6448
  0
LINE
  8
0
 10
115.423
 20
28.6448
 11
115.187
 21
28.8526
  0
LINE
  8
0
 10
115.187
 20
28.8526
 11
114.939
 21
29.0451
  0
LINE
  8
0
 10
114.939
 20
29.0451
 11
114.679
 21
29.2216
  0
LINE
  8
0
 10
114.679
 20
29.2216
 11
114.409
 21
29.3815
  0
LINE
  8
0
 10
114.409
 20
29.3815
 11
114.129
 21
29.5241
  0
LINE
  8
0
 10
114.129
 20
29.5241
 11
113.841
 21
29.6489
  0
LINE
  8
0
 10
113.841
 20
29.6489
 11
113.545
 21
29.7553
  0
LINE
  8
0
 10
113.545
 20
29.7553
 11
113.243
 21
29.8429
  0
LINE
  8
0
 10
113.243
 20
29.8429
 11
112.937
 21
29.9114
  0
LINE
  8
0
 10
112.937
 20
29.9114
 11
112.627
 21
29.9606
  0
LINE
  8
0
 10
112.627
 20
29.9606
 11
112.314
 21
29.9901
  0
LINE
  8
0
 10
112.314
 20
29.9901
 11
112
 21
30
  0
LINE
  8
0
 10
112
 20
30
 11
112
 21
27.5
  0
LINE
  8
0
 10
112
 20
27.5
 11
110
 21
27.5
  0
LINE
  8
0
 10
110
 20
27.5
 11
110
 21
30
  0
LINE
  8
0
 10
110
 20
30
 11
-110
 21
30
  0
LINE
  8
0
 10
-110
 20
30
 11
-110
 21
27.5
  0
LINE
  8
0
 10
-110
 20
27.5
 11
-112
 21
27.5
  0
LINE
  8
0
 10
-112
 20
27.5
 11
-112
 21
30
  0
LINE
  8
0
 10
-112
 20
30
 11
-112.314
 21
29.9901
  0
LINE
  8
0
 10
-112.314
 20
29.9901
 11
-112.627
 21
29.9606
  0
LINE
  8
0
 10
-112.627
 20
29.9606
 11
-112.937
 21
29.9114
  0
LINE
  8
0
 10
-112.937
 20
29.9114
 11
-113.243
 21
29.8429
  0
LINE
  8
0
 10
-113.243
 20
29.8429
 11
-113.545
 21
29.7553
  0
LINE
  8
0
 10
-113.545
 20
29.7553
 11
-113.841
 21
29.6489
  0
LINE
  8
0
 10
-113.841
 20
29.6489
 11
-114.129
 21
29.5241
  0
LINE
  8
0
 10
-114.129
 20
29.5241
 11
-114.409
 21
29.3815
  0
LINE
  8
0
 10
-114.409
 20
29.3815
 11
-114.679
 21
29.2216
  0
LINE
  8
0
 10
-114.679
 20
29.2216
 11
-114.939
 21
29.0451
  0
LINE
  8
0
 10
-114.939
 20
29.0451
 11
-115.187
 21
28.8526
  0
LINE
  8
0
 10
-115.187
 20
28.8526
 11
-115.423
 21
28.6448
  0
LINE
  8
0
 10
-115.423
 20
28.6448
 11
-115.645
 21
28.4227
  0
LINE
  8
0
 10
-115.645
 20
28.4227
 11
-115.853
 21
28.1871
  0
LINE
  8
0
 10
-115.853
 20
28.1871
 11
-116.045
 21
27.9389
  0
LINE
  8
0
 10
-116.045
 20
27.9389
 11
-116.222
 21
27.6791
  0
LINE
  8
0
 10
-116.222
 20
27.6791
 11
-116.382
 21
27.4088
  0
LINE
  8
0
 10
-116.382
 20
27.4088
 11
-116.524
 21
27.1289
  0
LINE
  8
0
 10
-116.524
 20
27.1289
 11
-116.649
 21
26.8406
  0
LINE
  8
0
 10
-116.649
 20
26.8406
 11
-116.755
 21
26.5451
  0
LINE
  8
0
 10
-116.755
 20
26.5451
 11
-116.843
 21
26.2434
  0
LINE
  8
0
 10
-116.843
 20
26.2434
 11
-116.911
 21
25.9369
  0
LINE
  8
0
 10
-116.911
 20
25.9369
 11
-116.961
 21
25.6267
  0
LINE
  8
0
 10
-116.961
 20
25.6267
 11
-116.99
 21
25.314
  0
LINE
  8
0
 10
-116.99
 20
25.314
 11
-117
 21
25
  0
LINE
  8
0
 10
-96.7857
 20
25
 11
-95.5357
 21
27.1651
  0
LINE
  8
0
 10
-95.5357
 20
27.1651
 11
-93.0357
 21
27.1651
  0
LINE
  8
0
 10
-93.0357
 20
27.1651
 11
-91.7857
 21
25
  0
LINE
  8
0
 10
-91.7857
 20
25
 11
-93.0357
 21
22.8349
  0
LINE
  8
0
 10
-93.0357
 20
22.8349
 11
-95.5357
 21
22.8349
  0
LINE
  8
0
 10
-95.5357
 20
22.8349
 11
-96.7857
 21
25
  0
LINE
  8
0
 10
-81.0714
 20
25
 11
-79.8214
 21
27.1651
  0
LINE
  8
0
 10
-79.8214
 20
27.1651
 11
-77.3214
 21
27.1651
  0
LINE
  8
0
 10
-77.3214
 20
27.1651
 11
-76.0714
 21
25
  0
LINE
  8
0
 10
-76.0714
 20
25
 11
-77.3214
 21
22.8349
  0
LINE
  8
0
 10
-77.3214
 20
22.8349
 11
-79.8214
 21
22.8349
  0
LINE
  8
0
 10
-79.8214
 20
22.8349
 11
-81.0714
 21
25
  0
LINE
  8
0
 10
-65.3571
 20
25
 11
-64.1071
 21
27.1651
  0
LINE
  8
0
 10
-64.1071
 20
27.1651
 11
-61.6071
 21
27.1651
  0
LINE
  8
0
 10
-61.6071
 20
27.1651
 11
-60.3571
 21
25
  0
LINE
  8
0
 10
-60.3571
 20
25
 11
-61.6071
 21
22.8349
  0
LINE
  8
0
 10
-61.6071
 20
22.8349
 11
-64.1071
 21
22.8349
  0
LINE
  8
0
 10
-64.1071
 20
22.8349
 11
-65.3571
 21
25
  0
LINE
  8
0
 10
-49.6429
 20
25
 11
-48.3929
 21
27.1651
  0
LINE
  8
0
 10
-48.3929
 20
27.1651
 11
-45.8929
 21
27.1651
  0
LINE
  8
0
 10
-45.8929
 20
27.1651
 11
-44.6429
 21
25
  0
LINE
  8
0
 10
-44.6429
 20
25
 11
-45.8929
 21
22.8349
  0
LINE
  8
0
 10
-45.8929
 20
22.8349
 11
-48.3929
 21
22.8349
  0
LINE
  8
0
 10
-48.3929
 20
22.8349
 11
-49.6429
 21
25
  0
LINE
  8
0
 10
-33.9286
 20
25
 11
-32.6786
 21
27.1651
  0
LINE
  8
0
 10
-32.6786
 20
27.1651
 11
-30.1786
 21
27.1651
  0
LINE
  8
0
 10
-30.1786
 20
27.1651
 11
-28.9286
 21
25
  0
LINE
  8
0
 10
-28.9286
 20
25
 11
-30.1786
 21
22.8349
  0
LINE
  8
0
 10
-30.1786
 20
22.8349
 11
-32.6786
 21
22.8349
  0
LINE
  8
0
 10
-32.6786
 20
22.8349
 11
-33.9286
 21
25
  0
LINE
  8
0
 10
-18.2143
 20
25
 11
-16.9643
 21
27.1651
  0
LINE
  8
0
 10
-16.9643
 20
27.1651
 11
-14.4643
 21
27.1651
  0
LINE
  8
0
 10
-14.4643
 20
27.1651
 11
-13.2143
 21
25
  0
LINE
  8
0
 10
-13.2143
 20
25
 11
-14.4643
 21
22.8349
  0
LINE
  8
0
 10
-14.4643
 20
22.8349
 11
-16.9643
 21
22.8349
  0
LINE
  8
0
 10
-16.9643
 20
22.8349
 11
-18.2143
 21
25
  0
LINE
  8
0
 10
-2.5
 20
25
 11
-1.25
 21
27.1651
  0
LINE
  8
0
 10
-1.25
 20
27.1651
 11
1.25
 21
27.1651
  0
LINE
  8
0
 10
1.25
 20
27.1651
 11
2.5
 21
25
  0
LINE
  8
0
 10
2.5
 20
25
 11
1.25
 21
22.8349
  0
LINE
  8
0
 10
1.25
 20
22.8349
 11
-1.25
 21
22.8349
  0
LINE
  8
0
 10
-1.25
 20
22.8349
 11
-2.5
 21
25
  0
LINE
  8
0
 10
13.2143
 20
25
 11
14.4643
 21
27.1651
  0
LINE
  8
0
 10
14.4643
 20
27.1651
 11
16.9643
 21
27.1651
  0
LINE
  8
0
 10
16.9643
 20
27.1651
 11
18.2143
 21
25
  0
LINE
  8
0
 10
18.2143
 20
25
 11
16.9643
 21
22.8349
  0
LINE
  8
0
 10
16.9643
 20
22.8349
 11
14.4643
 21
22.8349
  0
LINE
  8
0
 10
14.4643
 20
22.8349
 11
13.2143
 21
25
  0
LINE
  8
0
 10
28.9286
 20
25
 11
30.1786
 21
27.1651
  0
LINE
  8
0
 10
30.1786
 20
27.1651
 11
32.6786
 21
27.1651
  0
LINE
  8
0
 10
32.6786
 20
27.1651
 11
33.9286
 21
25
  0
LINE
  8
0
 10
33.9286
 20
25
 11
32.6786
 21
22.8349
  0
LINE
  8
0
 10
32.6786
 20
22.8349
 11
30.1786
 21
22.8349
  0
LINE
  8
0
 10
30.1786
 20
22.8349
 11
28.9286
 21
25
  0
LINE
  8
0
 10
44.6429
 20
25
 11
45.8929
 21
27.1651
  0
LINE
  8
0
 10
45.8929
 20
27.1651
 11
48.3929
 21
27.1651
  0
LINE
  8
0
 10
48.3929
 20
27.1651
 11
49.6429
 21
25
  0
LINE
  8
0
 10
49.6429
 20
25
 11
48.3929
 21
22.8349
  0
LINE
  8
0
 10
48.3929
 20
22.8349
 11
45.8929
 21
22.8349
  0
LINE
  8
0
 10
45.8929
 20
22.8349
 11
44.6429
 21
25
  0
LINE
  8
0
 10
60.3571
 20
25
 11
61.6071
 21
27.1651
  0
LINE
  8
0
 10
61.6071
 20
27.1651
 11
64.1071
 21
27.1651
  0
LINE
  8
0
 10
64.1071
 20
27.1651
 11
65.3571
 21
25
  0
LINE
  8
0
 10
65.3571
 20
25
 11
64.1071
 21
22.8349
  0
LINE
  8
0
 10
64.1071
 20
22.8349
 11
61.6071
 21
22.8349
  0
LINE
  8
0
 10
61.6071
 20
22.8349
 11
60.3571
 21
25
  0
LINE
  8
0
 10
76.0714
 20
25
 11
77.3214
 21
27.1651
  0
LINE
  8
0
 10
77.3214
 20
27.1651
 11
79.8214
 21
27.1651
  0
LINE
  8
0
 10
79.8214
 20
27.1651
 11
81.0714
 21
25
  0
LINE
  8
0
 10
81.0714
 20
25
 11
79.8214
 21
22.8349
  0
LINE
  8
0
 10
79.8214
 20
22.8349
 11
77.3214
 21
22.8349
  0
LINE
  8
0
 10
77.3214
 20
22.8349
 11
76.0714
 21
25
  0
LINE
  8
0
 10
91.7857
 20
25
 11
93.0357
 21
27.1651
  0
LINE
  8
0
 10
93.0357
 20
27.1651
 11
95.5357
 21
27.1651
  0
LINE
  8
0
 10
95.5357
 20
27.1651
 11
96.7857
 21
25
  0
LINE
  8
0
 10
96.7857
 20
25
 11
95.5357
 21
22.8349
  0
LINE
  8
0
 10
95.5357
 20
22.8349
 11
93.0357
 21
22.8349
  0
LINE
  8
0
 10
93.0357
 20
22.8349
 11
91.7857
 21
25
  0
ENDSEC
  0
SECTION
  2
OBJECTS
  0
DICTIONARY
  0
ENDSEC
  0
EOF
